<svg width="90" height="90" viewBox="0 0 90 90" fill="none" xmlns="http://www.w3.org/2000/svg">
<path d="M10.8281 60.5391L7.52344 61.6079L4.71094 53.0016L2.03906 53.8735L4.85156 62.4657C5.07656 63.1829 5.58281 63.7735 6.24375 64.111C6.90469 64.4485 7.66406 64.5188 8.39531 64.2797L11.7 63.211C13.2469 66.0375 15.1453 68.6672 17.3813 71.0438L15.3422 73.8563C14.8922 74.461 14.7094 75.2063 14.8219 75.9375C14.9344 76.6829 15.3422 77.3438 15.9469 77.7938L22.7672 82.7438C23.3859 83.1938 24.1313 83.3766 24.8766 83.25C25.6219 83.1375 26.2688 82.7297 26.7047 82.125L28.7578 79.3266C31.6828 80.7329 34.7766 81.7313 37.9547 82.3219V85.7954C37.9547 87.3422 39.2203 88.6079 40.7672 88.6079H49.2047C50.7516 88.6079 52.0172 87.3422 52.0172 85.7954V82.3219C55.1953 81.7313 58.2891 80.7188 61.2281 79.3125L63.2531 82.111C63.6891 82.7297 64.3359 83.1235 65.0813 83.25C65.8406 83.3766 66.5859 83.1938 67.1906 82.7438L74.0109 77.7938C74.6297 77.3438 75.0234 76.6829 75.1359 75.9375C75.2484 75.1922 75.0656 74.461 74.6297 73.8563L72.6047 71.0297C74.8266 68.6813 76.7391 66.0516 78.2719 63.1969L81.5766 64.2797C82.2938 64.5047 83.0531 64.4485 83.7281 64.111C84.4031 63.7594 84.8953 63.1829 85.1203 62.4657L87.9328 53.8594L85.2609 52.9875L82.4484 61.6079L79.1438 60.525C77.8781 60.1032 76.4859 60.6657 75.7969 61.861C74.3766 64.4766 72.6047 66.9094 70.5516 69.0891C69.6094 70.0875 69.5109 71.6063 70.3125 72.675L72.3516 75.4875L65.5313 80.4375L63.4781 77.611C62.6766 76.5282 61.2422 76.1625 59.9906 76.7391C57.2766 78.0329 54.4219 78.961 51.5109 79.5094C50.175 79.7625 49.1906 80.9157 49.1906 82.2657V85.7391H40.7531V82.2657C40.7531 80.9157 39.7828 79.7485 38.4328 79.5094C35.5078 78.961 32.6531 78.0329 29.925 76.725C28.6875 76.1625 27.2531 76.5141 26.4516 77.611L24.4125 80.4235L17.5922 75.4735L19.6172 72.675C20.4328 71.5922 20.3344 70.0735 19.3781 69.075C17.325 66.8954 15.5531 64.4625 14.1188 61.8188C13.4438 60.6516 12.0516 60.0891 10.7859 60.511L10.8281 60.5391Z" fill="#55A0A6"/>
<path d="M45 74.5312C57.9797 74.5312 69.3 66.2203 73.1672 53.8594L70.4812 53.0156C66.9797 64.1953 56.7422 71.7188 44.9859 71.7188C33.2297 71.7188 22.9922 64.2094 19.4906 53.0156L16.8047 53.8594C20.6719 66.2203 31.9922 74.5312 44.9719 74.5312H45Z" fill="#55A0A6"/>
<path d="M88.5938 47.8125H1.40625V50.625H88.5938V47.8125Z" fill="#55A0A6"/>
<path d="M82.9688 45V25.3125C82.9688 24.5391 82.3359 23.9062 81.5625 23.9062H70.3125V2.8125C70.3125 2.03906 69.6797 1.40625 68.9062 1.40625H52.0312C51.2578 1.40625 50.625 2.03906 50.625 2.8125V16.875H39.375V11.25C39.375 10.8281 39.1922 10.4344 38.8687 10.1672L30.4312 3.13594C29.9109 2.7 29.1516 2.7 28.6313 3.13594L20.1937 10.1672C19.8703 10.4344 19.6875 10.8281 19.6875 11.25V22.5H8.4375C7.66406 22.5 7.03125 23.1328 7.03125 23.9062V45H9.84375V25.3125H19.6875V45H22.5V11.9109L29.5312 6.04688L36.5625 11.9109V45H39.375V19.6875H50.625V45H53.4375V4.21875H67.5V45H70.3125V26.7188H80.1562V45H82.9688Z" fill="#55A0A6"/>
<path d="M59.0625 8.4375H56.25V11.25H59.0625V8.4375Z" fill="#55A0A6"/>
<path d="M64.6875 8.4375H61.875V11.25H64.6875V8.4375Z" fill="#55A0A6"/>
<path d="M59.0625 15.4688H56.25V18.2812H59.0625V15.4688Z" fill="#55A0A6"/>
<path d="M64.6875 15.4688H61.875V18.2812H64.6875V15.4688Z" fill="#55A0A6"/>
<path d="M59.0625 22.5H56.25V25.3125H59.0625V22.5Z" fill="#55A0A6"/>
<path d="M64.6875 22.5H61.875V25.3125H64.6875V22.5Z" fill="#55A0A6"/>
<path d="M33.75 14.0625H25.3125V16.875H33.75V14.0625Z" fill="#55A0A6"/>
<path d="M33.75 21.0938H25.3125V23.9062H33.75V21.0938Z" fill="#55A0A6"/>
</svg>
