<svg width="20" height="16" viewBox="0 0 20 16" fill="none" xmlns="http://www.w3.org/2000/svg">
<path d="M19.1755 2.73681C18.5 3.04383 17.772 3.24558 17.0176 3.34207C17.7895 2.87716 18.386 2.14032 18.6667 1.25435C17.9386 1.69295 17.1316 1.99997 16.2807 2.1754C15.5877 1.42102 14.6141 0.982422 13.5088 0.982422C11.4474 0.982422 9.76318 2.66663 9.76318 4.74558C9.76318 5.04383 9.79827 5.3333 9.85967 5.60523C6.73687 5.44733 3.95616 3.94733 2.10529 1.6754C1.78073 2.22804 1.59651 2.87716 1.59651 3.56137C1.59651 4.86839 2.25441 6.02628 3.27195 6.68418C2.64915 6.68418 2.0702 6.50874 1.56143 6.24558V6.2719C1.56143 8.09646 2.85967 9.62277 4.57897 9.96488C4.02698 10.1159 3.44748 10.137 2.88599 10.0263C3.12424 10.7741 3.59085 11.4284 4.22021 11.8973C4.84958 12.3662 5.61006 12.626 6.39476 12.6403C5.06461 13.6933 3.41581 14.2625 1.71932 14.2544C1.42108 14.2544 1.12283 14.2368 0.824585 14.2017C2.49125 15.2719 4.47371 15.8947 6.59651 15.8947C13.5088 15.8947 17.307 10.1579 17.307 5.18418C17.307 5.01751 17.307 4.85961 17.2983 4.69295C18.0351 4.16663 18.6667 3.49997 19.1755 2.73681Z" fill="white"/>
</svg>
