<svg width="9" height="5" viewBox="0 0 9 5" fill="none" xmlns="http://www.w3.org/2000/svg">
<path d="M8.77833 0.210935C8.70867 0.144097 8.62579 0.0910462 8.53447 0.0548428C8.44315 0.0186395 8.3452 0 8.24627 0C8.14735 0 8.0494 0.0186395 7.95808 0.0548428C7.86676 0.0910462 7.78388 0.144097 7.71421 0.210935L4.49936 3.27728L1.28451 0.210935C1.1434 0.0766549 0.95201 0.00121732 0.752448 0.00121732C0.552887 0.00121733 0.361498 0.0766549 0.220387 0.210935C0.0792753 0.345215 1.48685e-09 0.527338 0 0.717239C-1.48685e-09 0.90714 0.0792753 1.08926 0.220387 1.22354L3.9673 4.78906C4.03696 4.8559 4.11985 4.90895 4.21117 4.94516C4.30248 4.98136 4.40043 5 4.49936 5C4.59829 5 4.69624 4.98136 4.78756 4.94516C4.87887 4.90895 4.96176 4.8559 5.03142 4.78906L8.77833 1.22354C8.84857 1.15725 8.90432 1.07838 8.94237 0.991482C8.98041 0.904584 9 0.811377 9 0.717239C9 0.623101 8.98041 0.529894 8.94237 0.442996C8.90432 0.356097 8.84857 0.277227 8.77833 0.210935Z" fill="white"/>
</svg>
