<svg width="16" height="15" viewBox="0 0 16 15" fill="none" xmlns="http://www.w3.org/2000/svg">
<g filter="url(#filter0_b_82_5811)">
<ellipse cx="7.6612" cy="7.5" rx="7.51484" ry="7.5" fill="#55C6D0" fill-opacity="0.5"/>
<ellipse cx="7.6612" cy="7.5" rx="7.51484" ry="7.5" fill="#55C6D0" fill-opacity="0.5"/>
<ellipse cx="7.6612" cy="7.5" rx="7.51484" ry="7.5" fill="#F3F8F9" fill-opacity="0.5"/>
<ellipse cx="7.66122" cy="7.5" rx="3.50692" ry="3.5" fill="#55C6D0" fill-opacity="0.5"/>
<ellipse cx="7.66122" cy="7.5" rx="3.50692" ry="3.5" fill="#55C6D0" fill-opacity="0.5"/>
<ellipse cx="7.66122" cy="7.5" rx="3.50692" ry="3.5" fill="#55A0A6"/>
</g>
<defs>
<filter id="filter0_b_82_5811" x="-3.85364" y="-4" width="23.0297" height="23" filterUnits="userSpaceOnUse" color-interpolation-filters="sRGB">
<feFlood flood-opacity="0" result="BackgroundImageFix"/>
<feGaussianBlur in="BackgroundImageFix" stdDeviation="2"/>
<feComposite in2="SourceAlpha" operator="in" result="effect1_backgroundBlur_82_5811"/>
<feBlend mode="normal" in="SourceGraphic" in2="effect1_backgroundBlur_82_5811" result="shape"/>
</filter>
</defs>
</svg>
