<svg width="42" height="42" viewBox="0 0 42 42" fill="none" xmlns="http://www.w3.org/2000/svg">
<path d="M40.0312 24.9375H38.0625C38.0625 23.7563 37.275 22.7063 36.0938 22.4438V17.0625H38.7188H38.85C39.2438 16.9313 39.375 16.6687 39.375 16.275L38.0625 9.7125C38.0625 9.45 37.6687 9.1875 37.4062 9.1875H33.4688C33.2062 9.1875 32.9437 9.45 32.8125 9.7125L31.5 16.275V16.4062C31.5 16.8 31.7625 17.0625 32.1562 17.0625V19.0312C32.1562 19.425 32.4188 19.6875 32.8125 19.6875C33.2062 19.6875 33.4688 19.425 33.4688 19.0312V17.0625H34.7812V22.4438C33.6 22.7063 32.8125 23.7563 32.8125 24.9375H30.8438C30.45 24.9375 30.1875 25.2 30.1875 25.5938V33.4688V34.7812C30.1875 35.175 30.45 35.4375 30.8438 35.4375C31.2375 35.4375 31.5 35.175 31.5 34.7812V34.125H39.375V34.7812C39.375 35.175 39.6375 35.4375 40.0312 35.4375C40.425 35.4375 40.6875 35.175 40.6875 34.7812V33.4688V25.5938C40.6875 25.2 40.425 24.9375 40.0312 24.9375ZM33.9937 10.5H36.8813L37.9312 15.75H32.9438L33.9937 10.5ZM35.4375 23.625C36.225 23.625 36.75 24.15 36.75 24.9375H34.125C34.125 24.15 34.65 23.625 35.4375 23.625ZM31.5 26.25H33.4688H37.4062H39.375V32.8125H31.5V26.25Z" fill="#55A0A6"/>
<path d="M36.0938 27.5625H34.7812C34.3875 27.5625 34.125 27.825 34.125 28.2188C34.125 28.6125 34.3875 28.875 34.7812 28.875H36.0938C36.4875 28.875 36.75 28.6125 36.75 28.2188C36.75 27.825 36.4875 27.5625 36.0938 27.5625ZM22.3125 19.8188V9.84375C22.3125 8.00625 20.8687 6.5625 19.0312 6.5625H7.21875C5.38125 6.5625 3.9375 8.00625 3.9375 9.84375V19.8188C2.49375 20.0813 1.3125 21.3938 1.3125 22.9688V29.5312V33.4688V34.7812C1.3125 35.175 1.575 35.4375 1.96875 35.4375C2.3625 35.4375 2.625 35.175 2.625 34.7812V34.125H23.625V34.7812C23.625 35.175 23.8875 35.4375 24.2812 35.4375C24.675 35.4375 24.9375 35.175 24.9375 34.7812V33.4688V29.5312V22.9688C24.9375 21.3938 23.7563 20.0813 22.3125 19.8188ZM5.25 9.84375C5.25 8.79375 6.16875 7.875 7.21875 7.875H19.0312C20.0812 7.875 21 8.79375 21 9.84375V12.4688C20.6063 12.4688 20.3438 12.7312 20.3438 13.125C20.3438 13.5188 20.6063 13.7812 21 13.7812V17.7188C20.6063 17.7188 20.3438 17.9812 20.3438 18.375C20.3438 18.7688 20.6063 19.0312 21 19.0312V19.6875H17.4563C18.1125 18.9 18.1125 17.7188 17.4563 16.9312L14.7 14.175C13.9125 13.3875 12.7313 13.3875 11.9438 14.175L9.1875 16.9312C8.4 17.7188 8.4 18.9 9.1875 19.6875H5.25V13.7812C5.64375 13.7812 5.90625 13.5188 5.90625 13.125C5.90625 12.7312 5.64375 12.4688 5.25 12.4688V9.84375ZM9.84375 18.7688C9.58125 18.5063 9.58125 18.1125 9.84375 17.85L12.6 15.0938C12.8625 14.8313 13.2563 14.8313 13.5188 15.0938L16.275 17.85C16.5375 18.1125 16.5375 18.5063 16.275 18.7688L15.4875 19.6875H10.7625L9.84375 18.7688ZM2.625 22.9688C2.625 21.9187 3.54375 21 4.59375 21H10.5H15.75H21.6562C22.7062 21 23.625 21.9187 23.625 22.9688V28.875H2.625V22.9688ZM2.625 30.1875H23.625V32.8125H2.625V30.1875Z" fill="#55A0A6"/>
<path d="M7.875 11.1562C8.23744 11.1562 8.53125 10.8624 8.53125 10.5C8.53125 10.1376 8.23744 9.84375 7.875 9.84375C7.51256 9.84375 7.21875 10.1376 7.21875 10.5C7.21875 10.8624 7.51256 11.1562 7.875 11.1562Z" fill="#55A0A6"/>
<path d="M10.5 13.7812C10.8624 13.7812 11.1562 13.4874 11.1562 13.125C11.1562 12.7626 10.8624 12.4688 10.5 12.4688C10.1376 12.4688 9.84375 12.7626 9.84375 13.125C9.84375 13.4874 10.1376 13.7812 10.5 13.7812Z" fill="#55A0A6"/>
<path d="M7.875 16.4062C8.23744 16.4062 8.53125 16.1124 8.53125 15.75C8.53125 15.3876 8.23744 15.0938 7.875 15.0938C7.51256 15.0938 7.21875 15.3876 7.21875 15.75C7.21875 16.1124 7.51256 16.4062 7.875 16.4062Z" fill="#55A0A6"/>
<path d="M13.125 11.1562C13.4874 11.1562 13.7812 10.8624 13.7812 10.5C13.7812 10.1376 13.4874 9.84375 13.125 9.84375C12.7626 9.84375 12.4688 10.1376 12.4688 10.5C12.4688 10.8624 12.7626 11.1562 13.125 11.1562Z" fill="#55A0A6"/>
<path d="M15.75 13.7812C16.1124 13.7812 16.4062 13.4874 16.4062 13.125C16.4062 12.7626 16.1124 12.4688 15.75 12.4688C15.3876 12.4688 15.0938 12.7626 15.0938 13.125C15.0938 13.4874 15.3876 13.7812 15.75 13.7812Z" fill="#55A0A6"/>
<path d="M18.375 16.4062C18.7374 16.4062 19.0312 16.1124 19.0312 15.75C19.0312 15.3876 18.7374 15.0938 18.375 15.0938C18.0126 15.0938 17.7188 15.3876 17.7188 15.75C17.7188 16.1124 18.0126 16.4062 18.375 16.4062Z" fill="#55A0A6"/>
<path d="M18.375 11.1562C18.7374 11.1562 19.0312 10.8624 19.0312 10.5C19.0312 10.1376 18.7374 9.84375 18.375 9.84375C18.0126 9.84375 17.7188 10.1376 17.7188 10.5C17.7188 10.8624 18.0126 11.1562 18.375 11.1562Z" fill="#55A0A6"/>
</svg>
