<svg width="21" height="16" viewBox="0 0 21 16" fill="none" xmlns="http://www.w3.org/2000/svg">
<path d="M9.00141 0.262383C9.12264 0.371726 9.19024 0.519512 9.18937 0.673275C9.1885 0.827039 9.11923 0.974208 8.99677 1.08245L2.26713 7.02491L19.7805 7.10371C19.953 7.10448 20.1182 7.16636 20.2396 7.27572C20.361 7.38509 20.4287 7.53298 20.4278 7.68687C20.4269 7.84076 20.3575 7.98804 20.2349 8.09631C20.1123 8.20457 19.9465 8.26496 19.7739 8.26418L2.26056 8.18539L8.92264 14.1881C9.03694 14.2986 9.09869 14.4444 9.09486 14.5947C9.09104 14.745 9.02194 14.8881 8.90214 14.9939C8.78233 15.0997 8.62117 15.1598 8.4526 15.1617C8.28404 15.1636 8.12123 15.1071 7.99847 15.004L0.23054 8.00605C0.109317 7.89671 0.0417165 7.74892 0.0425863 7.59516C0.0434561 7.44139 0.112725 7.29423 0.235179 7.18598L8.08188 0.258246C8.20449 0.150135 8.3702 0.0898475 8.54261 0.0906232C8.71502 0.0913989 8.88004 0.153175 9.00141 0.262383Z" fill="white"/>
</svg>
