<svg width="84" height="68" viewBox="0 0 84 68" fill="none" xmlns="http://www.w3.org/2000/svg">
<path d="M27.4694 56.7295H33.9235C34.2303 56.7295 34.5245 56.6204 34.7414 56.4262C34.9583 56.232 35.0801 55.9685 35.0801 55.6939V43.5403C35.0801 43.2657 34.9583 43.0022 34.7414 42.808C34.5245 42.6138 34.2303 42.5047 33.9235 42.5047H27.4694C27.1626 42.5047 26.8684 42.6138 26.6515 42.808C26.4346 43.0022 26.3127 43.2657 26.3127 43.5403V55.6939C26.3127 55.9685 26.4346 56.232 26.6515 56.4262C26.8684 56.6204 27.1626 56.7295 27.4694 56.7295ZM28.626 44.576H32.7669V54.6582H28.626V44.576ZM53.8378 42.5047H47.3837C47.0769 42.5047 46.7827 42.6138 46.5658 42.808C46.3489 43.0022 46.2271 43.2657 46.2271 43.5403V55.6939C46.2271 55.9685 46.3489 56.232 46.5658 56.4262C46.7827 56.6204 47.0769 56.7295 47.3837 56.7295H53.8378C54.1446 56.7295 54.4388 56.6204 54.6557 56.4262C54.8726 56.232 54.9945 55.9685 54.9945 55.6939V43.5403C54.9945 43.2657 54.8726 43.0022 54.6557 42.808C54.4388 42.6138 54.1446 42.5047 53.8378 42.5047ZM52.6812 54.6582H48.5403V44.576H52.6812V54.6582ZM72.7608 42.5047H66.306C65.9992 42.5047 65.705 42.6138 65.4881 42.808C65.2712 43.0022 65.1493 43.2657 65.1493 43.5403V55.6939C65.1493 55.9685 65.2712 56.232 65.4881 56.4262C65.705 56.6204 65.9992 56.7295 66.306 56.7295H72.7601C73.0669 56.7295 73.3611 56.6204 73.578 56.4262C73.7949 56.232 73.9167 55.9685 73.9167 55.6939V43.5403C73.9167 43.2658 73.795 43.0024 73.5782 42.8082C73.3614 42.614 73.0674 42.5048 72.7608 42.5047ZM71.6041 54.6582H67.4626V44.576H71.6035L71.6041 54.6582ZM79.4595 61.3696H79.0054V38.2858C79.249 38.3319 79.4973 38.3552 79.7463 38.3554C79.8184 38.3554 79.8877 38.3533 79.9538 38.3499C80.8918 38.2982 81.7695 37.9188 82.398 37.2932C83.619 36.0948 83.8685 34.0752 81.9836 32.5355L81.9654 32.5208L64.2946 18.6884C63.2709 17.8809 61.9524 17.4371 60.5882 17.4411C59.2239 17.445 57.9086 17.8964 56.8908 18.7098L51.2068 23.2567L45.371 18.6884C44.3474 17.8808 43.0288 17.4371 41.6646 17.441C40.3004 17.445 38.985 17.8964 37.9673 18.7098L32.2846 23.2567L26.4489 18.6884C25.4253 17.8808 24.1067 17.4371 22.7425 17.441C21.3782 17.445 20.0629 17.8964 19.0451 18.7098L1.78495 32.5185C0.666823 33.336 0.328426 34.239 0.24201 34.8545C0.183193 35.2618 0.217597 35.6756 0.343128 36.0706C0.468658 36.4656 0.682685 36.8336 0.972173 37.1522C1.36849 37.5926 1.89308 37.9262 2.48796 38.1163C3.08283 38.3063 3.72482 38.3453 4.34292 38.229V61.3693H4.10597C3.15665 61.3693 2.24621 61.707 1.57493 62.3081C0.903658 62.9091 0.52654 63.7244 0.52654 64.5745C0.52654 65.4245 0.903658 66.2398 1.57493 66.8409C2.24621 67.4419 3.15665 67.7796 4.10597 67.7796H79.4595C80.4088 67.7796 81.3192 67.4419 81.9905 66.8409C82.6618 66.2398 83.0389 65.4245 83.0389 64.5745C83.0389 63.7244 82.6618 62.9091 81.9905 62.3081C81.3192 61.707 80.4088 61.3693 79.4595 61.3693V61.3696ZM60.0825 61.3696V38.2906C60.3237 38.3373 60.5698 38.3611 60.8166 38.3615C61.3182 38.3581 61.8136 38.2614 62.2712 38.0775C62.7289 37.8936 63.1388 37.6265 63.475 37.2932C64.6961 36.0948 64.9456 34.0752 63.0606 32.5357L63.0424 32.5209L56.4345 27.3482L60.6054 23.9556L76.6915 37.0535V61.3696H60.0825ZM41.1595 38.2833C41.4038 38.331 41.6531 38.3553 41.9031 38.356C42.264 38.3561 42.6227 38.3061 42.9665 38.208C43.576 38.0336 44.1237 37.7189 44.5549 37.2956C44.9861 36.8722 45.2857 36.3549 45.4237 35.7955C45.7102 34.6253 45.2419 33.4373 44.1384 32.5364C44.1324 32.5316 44.1265 32.5267 44.1202 32.5216L37.5124 27.349L41.684 23.956L57.77 37.054V61.3696H41.1595V38.2833ZM58.4321 20.2543C59.0285 19.7781 59.7992 19.5141 60.5983 19.5124C61.3975 19.5107 62.1696 19.7713 62.7685 20.245L80.4333 34.073C80.9176 34.4714 81.1167 34.9133 81.0095 35.3513C80.9574 35.5552 80.8473 35.7435 80.6899 35.898C80.5325 36.0526 80.3332 36.168 80.1113 36.2333C79.6313 36.3698 79.1186 36.2304 78.6274 35.8292L61.3847 21.7898C61.1718 21.6166 60.8944 21.5206 60.6068 21.5206C60.3191 21.5206 60.0417 21.6166 59.8288 21.7898L54.6814 25.977L52.9629 24.6313L58.4321 20.2543ZM39.5092 20.2543C40.1056 19.778 40.8762 19.5141 41.6753 19.5123C42.4744 19.5106 43.2465 19.7713 43.8454 20.245L61.5099 34.0728C62.3587 34.7715 62.1789 35.4919 61.7659 35.8974C61.3528 36.3029 60.563 36.5308 59.7041 35.8292L42.4617 21.7898C42.2489 21.6166 41.9715 21.5206 41.6838 21.5206C41.3962 21.5206 41.1188 21.6166 40.9059 21.7898L35.7584 25.977L34.04 24.6313L39.5092 20.2543ZM3.52816 36.2131C3.38147 36.2014 3.23891 36.1634 3.10899 36.1013C2.97907 36.0392 2.86444 35.9543 2.77193 35.8517C2.67942 35.7491 2.61092 35.6308 2.57052 35.504C2.53012 35.3772 2.51864 35.2444 2.53676 35.1135C2.58633 34.7667 2.836 34.4209 3.26131 34.1135C3.27634 34.1027 3.29105 34.0916 3.30559 34.0801L20.5861 20.2543C21.1825 19.778 21.9531 19.5141 22.7522 19.5123C23.5513 19.5106 24.3234 19.7713 24.9223 20.245L42.5868 34.0728C43.0713 34.4713 43.2706 34.9132 43.1633 35.3513C43.1112 35.5552 43.0011 35.7435 42.8437 35.8981C42.6862 36.0526 42.4869 36.1681 42.265 36.2333C41.7848 36.3695 41.2724 36.2304 40.7812 35.8292L23.5388 21.7898C23.3259 21.6166 23.0486 21.5206 22.7609 21.5206C22.4732 21.5206 22.1959 21.6166 21.983 21.7898L4.74922 35.8073C4.33119 36.1023 3.90984 36.2427 3.52816 36.2131ZM6.65568 37.0543L22.7602 23.956L38.8463 37.0538V61.3696H22.1019V43.5409C22.1019 43.2663 21.9801 43.0028 21.7632 42.8086C21.5463 42.6144 21.2521 42.5052 20.9453 42.5052H10.2936C9.98685 42.5052 9.69265 42.6144 9.47574 42.8086C9.25883 43.0028 9.13698 43.2663 9.13698 43.5409V61.3696H6.65568V37.0543ZM19.7887 61.37H11.4502V44.5771H19.7887V61.37ZM79.4595 65.709H4.10597C3.77016 65.709 3.44811 65.5895 3.21065 65.3769C2.9732 65.1643 2.8398 64.8759 2.8398 64.5752C2.8398 64.2745 2.9732 63.9861 3.21065 63.7735C3.44811 63.5609 3.77016 63.4414 4.10597 63.4414H79.4595C79.7953 63.4414 80.1173 63.5609 80.3548 63.7735C80.5922 63.9861 80.7256 64.2745 80.7256 64.5752C80.7256 64.8759 80.5922 65.1643 80.3548 65.3769C80.1173 65.5895 79.7953 65.709 79.4595 65.709ZM76.266 3.9588C76.0101 2.97263 75.4333 2.07659 74.6085 1.38409C73.7836 0.691599 72.7479 0.23378 71.6324 0.0685789C70.5169 -0.0966225 69.3717 0.0382208 68.3418 0.456042C67.3119 0.873863 66.4436 1.55588 65.8468 2.41577C65.1533 2.16451 64.4072 2.05103 63.66 2.08315C62.9128 2.11528 62.1822 2.29225 61.5188 2.60185C60.8554 2.91145 60.275 3.34629 59.8176 3.87635C59.3602 4.40641 59.0367 5.01906 58.8695 5.67198C57.7253 5.73283 56.6463 6.1696 55.8394 6.8986C55.0325 7.62761 54.5544 8.59758 54.4966 9.62268C54.4388 10.6478 54.8055 11.6559 55.5264 12.454C56.2473 13.252 57.2716 13.7838 58.4032 13.9474C58.4638 13.9561 58.5251 13.9604 58.5865 13.9605H76.2549C76.8444 13.9615 77.4269 13.8465 77.9612 13.6236C78.4955 13.4007 78.9686 13.0754 79.3469 12.6707C79.9998 11.9721 80.4454 11.1375 80.6425 10.2438C80.8397 9.35021 80.782 8.4265 80.4749 7.55811C80.1678 6.68971 79.6212 5.90467 78.8855 5.27556C78.1498 4.64644 77.2489 4.19357 76.266 3.9588ZM77.5737 11.3406C77.4122 11.513 77.2104 11.6515 76.9825 11.7462C76.7546 11.841 76.5062 11.8898 76.2549 11.8891H58.6877C58.1178 11.7874 57.6103 11.4996 57.2642 11.0815C56.9181 10.6635 56.7579 10.1451 56.8149 9.62717C56.8719 9.10926 57.142 8.62884 57.5726 8.27933C58.0032 7.92981 58.5636 7.73619 59.1448 7.73611C59.315 7.73636 59.4847 7.75303 59.6509 7.78582C59.8218 7.81943 59.9989 7.81788 60.169 7.7813C60.3392 7.74472 60.4978 7.67406 60.633 7.57464C60.7682 7.47522 60.8765 7.34964 60.9496 7.20733C61.0228 7.06503 61.0589 6.90972 61.0554 6.75309L61.0535 6.70042C61.0544 6.02403 61.3548 5.37555 61.8889 4.89727C62.4231 4.41899 63.1473 4.14997 63.9027 4.14922C64.5366 4.14744 65.1527 4.33702 65.6515 4.68734C65.7984 4.7899 65.9708 4.85917 66.154 4.88926C66.3372 4.91934 66.5258 4.90936 66.7038 4.86016C66.8818 4.81096 67.0439 4.72399 67.1763 4.60665C67.3087 4.48931 67.4075 4.34508 67.4642 4.18621C67.7055 3.512 68.2017 2.93419 68.8674 2.55227C69.5331 2.17034 70.3267 2.0082 71.1116 2.09376C71.8964 2.17931 72.6234 2.50722 73.1674 3.02101C73.7113 3.5348 74.0382 4.20233 74.0917 4.90868C74.1098 5.15145 74.2227 5.38078 74.4108 5.55644C74.5988 5.7321 74.8499 5.84289 75.12 5.86935C75.7917 5.93595 76.4306 6.16444 76.9687 6.53049C77.5069 6.89654 77.9241 7.38644 78.1759 7.94801C78.4277 8.50957 78.5046 9.12178 78.3986 9.71942C78.2925 10.3171 78.0074 10.8778 77.5737 11.3418V11.3406Z" fill="white"/>
</svg>
